Chapter 2 Data Preprocessing | R Note
…
We select 2 or more columns to group_by function like this.

new_mpg %>%
  group_by(manufacturer, model) %>%
  summarise(mean_hwy = mean(hwy),
            max_hwy = max(hwy),
            min_hwy = min(hwy))

## `summarise()` has grouped output by 'manufacturer'. You can override using the `.groups` argument.

## # A tibble: 38 x 5
## # Groups:   manufacturer [15]
##    manufacturer model              mean_hwy max_hwy min_hwy
##    <chr>        <chr>                 <dbl>   <int>   <int>
##  1 audi         a4                     28.3      31      26
##  2 audi         a4 quattro             25.8      28      25
##  3 audi         a6 quattro             24        25      23
##  4 chevrolet    c1500 suburban 2wd     17.8      20      15
##  5 chevrolet    corvette               24.8      26      23
##  6 chevrolet    k1500 tahoe 4wd        16.2      19      14
##  7 chevrolet    malibu                 27.6      30      26
##  8 dodge        caravan 2wd            22.4      24      17
##  9 dodge        dakota pickup 4wd      17        19      12
## 10 dodge        durango 4wd            16        18      12
## # … with 28 more rows
…
